{
    "start": ["foi o /start"],
    "end": ["acabou!"],
    "bot": [
        "*pt*",
        "/comprar", "/info", "/ajuda",
        "*en*",
        "/buy", "/link", "/help",
        "*fr*",
        "/achat", "/relier", "/aider"
    ],
    "comprar": [
    "*Canais de Venda*",
    "    - [Lunes Pay (android)](https://play.google.com/store/apps/details?id=com.lunespay&hl=pt_BR&gl=US/)",
    "    - [Lunes Wallet (android)](https://luneswallet.app/)",
    "    - _FootToken - em breve!_"
    ],

    "info": [
    "*Links*",
    "    - [Instagram](https://www.instagram.com/cruzeiro/?hl=pt-br)",
    "    - [Youtube](https://www.youtube.com/c/OficialCruzeiro/videos)",
    "    - [Facebook](https://www.facebook.com/cruzeirooficial)",
    "    - [Twitter](https://twitter.com/cruzeiro)",
    "    - [Tiktok](https://www.tiktok.com/@cruzeiro)"
    ],
    
    "ajuda": [
    "*Ajuda*",
    "    - [Telegram](https://t.me/CruzeiroFanToken)",
    "    - [Facebook](https://www.facebook.com/cruzeirooficial)",
    "    - [Instagram](https://www.instagram.com/cruzeiro/?hl=pt-br)",
    "    - _Email - support@foottoken.com_"
    ],

    "buy": [
    "*Sales Channels*",
    "    - [Lunes Pay (android)](https://play.google.com/store/apps/details?id=com.lunespay&hl=pt_BR&gl=US/)",
    "    - [Lunes Wallet (android)](https://luneswallet.app/)",
    "    -_FootToken - Coming Soon!_"
    ],

    "link": [
    "*Links*",
    "    - [Instagram](https://www.instagram.com/cruzeiro/?hl=pt-br)",
    "    - [Youtube](https://www.youtube.com/c/OficialCruzeiro/videos)",
    "    - [Facebook](https://www.facebook.com/cruzeirooficial)",
    "    - [Twitter](https://twitter.com/cruzeiro)",
    "    - [Tiktok](https://www.tiktok.com/@cruzeiro)"
    ],

    "help": [
    "*Help*",
    "    - [Telegram](https://t.me/CruzeiroFanToken)",
    "    - [Facebook](https://www.facebook.com/cruzeirooficial)",
    "    - [Instagram](https://www.instagram.com/cruzeiro/?hl=pt-b[r])",
    "    - _Email - support@foottoken.com_"
    ],
    
    "achat": [
    "*Canaux de Vente*",
    "    - [Lunes Pay (android)](https://play.google.com/store/apps/details?id=com.lunespay&hl=pt_BR&gl=US/)",
    "    - [Portefeuille Lunes (android)](https://luneswallet.app/)",
    "    - _FootToken - Bientôt!_"
    ],

    "relier": [
    "*Relier*",
    "    - [Instagram](https://www.instagram.com/cruzeiro/?hl=pt-br)",
    "    - [Youtube](https://www.youtube.com/c/OficialCruzeiro/videos)",
    "    - [Facebook](https://www.facebook.com/cruzeirooficial)",
    "    - [Twitter](https://twitter.com/cruzeiro)",
    "    - [Tiktok](https://www.tiktok.com/@cruzeiro)"
    ],

    "aider": [
    "*Aider*",
    "    - [Télégramme](https://t.me/CruzeiroFanToken)",
    "    - [Facebook](https://www.facebook.com/cruzeirooficial)",
    "    - [Instagram](https://www.instagram.com/cruzeiro/?hl=pt-br)",
    "    - _Email - support@foottoken.com_"
    ]
}
